%YAML 1.1
%TAG !u! tag:unity3d.com,2011:
--- !u!114 &11400000
MonoBehaviour:
  m_ObjectHideFlags: 0
  m_CorrespondingSourceObject: {fileID: 0}
  m_PrefabInstance: {fileID: 0}
  m_PrefabAsset: {fileID: 0}
  m_GameObject: {fileID: 0}
  m_Enabled: 1
  m_EditorHideFlags: 0
  m_Script: {fileID: 11500000, guid: 3dc7d666177b4104799224a54778d9ad, type: 3}
  m_Name: SpaunObject
  m_EditorClassIdentifier: 
  SpaunObj:
  - _number: 7
    _prefabe: {fileID: 279720314016918767, guid: c99891b5b327cfb4a9eaf1bf677dd175, type: 3}
